<?xml version="1.0" standalone="no"?>
 <!DOCTYPE svg PUBLIC "-//W3C//DTD SVG 1.1//EN" 
 "http://www.w3.org/Graphics/SVG/1.1/DTD/svg11.dtd"> 
<svg xmlns="http://www.w3.org/2000/svg" version="1.1" 
    width="2.7051cm" height="3.08356cm" viewBox="0 0 10650 12140 ">
<title>SVG Picture created as sd_adapter-F_Cu.svg date 2021/05/19 12:15:45 </title>
  <desc>Picture generated by PCBNEW </desc>
<g style="fill:#000000; fill-opacity:1;stroke:#000000; stroke-opacity:1;
stroke-linecap:round; stroke-linejoin:round; "
 transform="translate(0 0) scale(1 1)">
</g>
<g style="fill:#000000; fill-opacity:0.0; 
stroke:#000000; stroke-width:-0.000393701; stroke-opacity:1; 
stroke-linecap:round; stroke-linejoin:round;">
<g >
</g>
<g style="fill:#000000; fill-opacity:0.0; 
stroke:#000000; stroke-width:0; stroke-opacity:1; 
stroke-linecap:round; stroke-linejoin:round;">
</g>
<g style="fill:#000000; fill-opacity:1.0; 
stroke:#000000; stroke-width:0; stroke-opacity:1; 
stroke-linecap:round; stroke-linejoin:round;">
<path style="fill:#000000; fill-opacity:1.0; 
stroke:#000000; stroke-width:0; stroke-opacity:1; 
stroke-linecap:round; stroke-linejoin:round;fill-rule:evenodd;"
d="M 3543.55,2169.9
3533.99,2171.31
3524.63,2173.66
3515.53,2176.91
3506.8,2181.04
3498.51,2186.01
3490.76,2191.76
3483.6,2198.25
3477.11,2205.41
3471.36,2213.17
3466.39,2221.45
3462.26,2230.18
3459.01,2239.28
3456.66,2248.65
3455.25,2258.2
3454.77,2267.85
3454.77,2563.12
3455.25,2572.77
3456.66,2582.33
3459.01,2591.69
3462.26,2600.79
3466.39,2609.52
3471.36,2617.81
3477.11,2625.56
3483.6,2632.72
3490.76,2639.21
3498.51,2644.96
3506.8,2649.93
3515.53,2654.06
3524.63,2657.31
3533.99,2659.66
3543.55,2661.07
3553.2,2661.55
4045.32,2661.55
4054.97,2661.07
4064.52,2659.66
4073.89,2657.31
4082.99,2654.06
4091.72,2649.93
4100,2644.96
4107.76,2639.21
4114.92,2632.72
4121.41,2625.56
4127.16,2617.81
4132.13,2609.52
4136.26,2600.79
4139.51,2591.69
4141.86,2582.33
4143.27,2572.77
4143.75,2563.12
4143.75,2267.85
4143.27,2258.2
4141.86,2248.65
4139.51,2239.28
4136.26,2230.18
4132.13,2221.45
4127.16,2213.17
4121.41,2205.41
4114.92,2198.25
4107.76,2191.76
4100,2186.01
4091.72,2181.04
4082.99,2176.91
4073.89,2173.66
4064.52,2171.31
4054.97,2169.9
4045.32,2169.42
3553.2,2169.42
Z" /> 
<path style="fill:#000000; fill-opacity:1.0; 
stroke:#000000; stroke-width:0; stroke-opacity:1; 
stroke-linecap:round; stroke-linejoin:round;fill-rule:evenodd;"
d="M 3543.55,3272.26
3533.99,3273.68
3524.63,3276.02
3515.53,3279.28
3506.8,3283.41
3498.51,3288.37
3490.76,3294.13
3483.6,3300.61
3477.11,3307.77
3471.36,3315.53
3466.39,3323.81
3462.26,3332.54
3459.01,3341.64
3456.66,3351.01
3455.25,3360.56
3454.77,3370.21
3454.77,3665.49
3455.25,3675.13
3456.66,3684.69
3459.01,3694.06
3462.26,3703.15
3466.39,3711.88
3471.36,3720.17
3477.11,3727.93
3483.6,3735.08
3490.76,3741.57
3498.51,3747.32
3506.8,3752.29
3515.53,3756.42
3524.63,3759.67
3533.99,3762.02
3543.55,3763.44
3553.2,3763.91
4045.32,3763.91
4054.97,3763.44
4064.52,3762.02
4073.89,3759.67
4082.99,3756.42
4091.72,3752.29
4100,3747.32
4107.76,3741.57
4114.92,3735.08
4121.41,3727.93
4127.16,3720.17
4132.13,3711.88
4136.26,3703.15
4139.51,3694.06
4141.86,3684.69
4143.27,3675.13
4143.75,3665.49
4143.75,3370.21
4143.27,3360.56
4141.86,3351.01
4139.51,3341.64
4136.26,3332.54
4132.13,3323.81
4127.16,3315.53
4121.41,3307.77
4114.92,3300.61
4107.76,3294.13
4100,3288.37
4091.72,3283.41
4082.99,3279.28
4073.89,3276.02
4064.52,3273.68
4054.97,3272.26
4045.32,3271.79
3553.2,3271.79
Z" /> 
</g>
<g >
</g>
<g style="fill:#000000; fill-opacity:1.0; 
stroke:#000000; stroke-width:0; stroke-opacity:1; 
stroke-linecap:round; stroke-linejoin:round;">
<path style="fill:#000000; fill-opacity:1.0; 
stroke:#000000; stroke-width:0; stroke-opacity:1; 
stroke-linecap:round; stroke-linejoin:round;fill-rule:evenodd;"
d="M 8635.23,3094.29
8625.91,3095.68
8616.78,3097.96
8607.91,3101.14
8599.4,3105.16
8591.32,3110.01
8583.75,3115.62
8576.78,3121.94
8570.45,3128.92
8564.84,3136.48
8560,3144.56
8555.97,3153.07
8552.8,3161.94
8550.51,3171.08
8549.13,3180.39
8548.67,3189.8
8548.67,3381.73
8549.13,3391.13
8550.51,3400.45
8552.8,3409.58
8555.97,3418.45
8560,3426.96
8564.84,3435.04
8570.45,3442.61
8576.78,3449.58
8583.75,3455.91
8591.32,3461.52
8599.4,3466.36
8607.91,3470.39
8616.78,3473.56
8625.91,3475.85
8635.23,3477.23
8644.63,3477.69
9003.89,3477.69
9013.29,3477.23
9022.61,3475.85
9031.74,3473.56
9040.61,3470.39
9049.12,3466.36
9057.2,3461.52
9064.76,3455.91
9071.74,3449.58
9078.07,3442.61
9083.68,3435.04
9088.52,3426.96
9092.55,3418.45
9095.72,3409.58
9098.01,3400.45
9099.39,3391.13
9099.85,3381.73
9099.85,3189.8
9099.39,3180.39
9098.01,3171.08
9095.72,3161.94
9092.55,3153.07
9088.52,3144.56
9083.68,3136.48
9078.07,3128.92
9071.74,3121.94
9064.76,3115.62
9057.2,3110.01
9049.12,3105.16
9040.61,3101.14
9031.74,3097.96
9022.61,3095.68
9013.29,3094.29
9003.89,3093.83
8644.63,3093.83
Z" /> 
<path style="fill:#000000; fill-opacity:1.0; 
stroke:#000000; stroke-width:0; stroke-opacity:1; 
stroke-linecap:round; stroke-linejoin:round;fill-rule:evenodd;"
d="M 8635.23,2356.11
8625.91,2357.49
8616.78,2359.78
8607.91,2362.95
8599.4,2366.97
8591.32,2371.82
8583.75,2377.43
8576.78,2383.75
8570.45,2390.73
8564.84,2398.29
8560,2406.37
8555.97,2414.88
8552.8,2423.75
8550.51,2432.89
8549.13,2442.2
8548.67,2451.61
8548.67,2643.54
8549.13,2652.94
8550.51,2662.26
8552.8,2671.39
8555.97,2680.26
8560,2688.77
8564.84,2696.85
8570.45,2704.42
8576.78,2711.39
8583.75,2717.72
8591.32,2723.33
8599.4,2728.17
8607.91,2732.2
8616.78,2735.37
8625.91,2737.66
8635.23,2739.04
8644.63,2739.5
9003.89,2739.5
9013.29,2739.04
9022.61,2737.66
9031.74,2735.37
9040.61,2732.2
9049.12,2728.17
9057.2,2723.33
9064.76,2717.72
9071.74,2711.39
9078.07,2704.42
9083.68,2696.85
9088.52,2688.77
9092.55,2680.26
9095.72,2671.39
9098.01,2662.26
9099.39,2652.94
9099.85,2643.54
9099.85,2451.61
9099.39,2442.2
9098.01,2432.89
9095.72,2423.75
9092.55,2414.88
9088.52,2406.37
9083.68,2398.29
9078.07,2390.73
9071.74,2383.75
9064.76,2377.43
9057.2,2371.82
9049.12,2366.97
9040.61,2362.95
9031.74,2359.78
9022.61,2357.49
9013.29,2356.11
9003.89,2355.64
8644.63,2355.64
Z" /> 
</g>
<g >
</g>
<g style="fill:#000000; fill-opacity:1.0; 
stroke:#000000; stroke-width:0; stroke-opacity:1; 
stroke-linecap:round; stroke-linejoin:round;">
<path style="fill:#000000; fill-opacity:1.0; 
stroke:#000000; stroke-width:0; stroke-opacity:1; 
stroke-linecap:round; stroke-linejoin:round;fill-rule:evenodd;"
d="M 7635.23,3094.29
7625.91,3095.68
7616.78,3097.96
7607.91,3101.14
7599.4,3105.16
7591.32,3110.01
7583.75,3115.62
7576.78,3121.94
7570.45,3128.92
7564.84,3136.48
7560,3144.56
7555.97,3153.07
7552.8,3161.94
7550.51,3171.08
7549.13,3180.39
7548.67,3189.8
7548.67,3381.73
7549.13,3391.13
7550.51,3400.45
7552.8,3409.58
7555.97,3418.45
7560,3426.96
7564.84,3435.04
7570.45,3442.61
7576.78,3449.58
7583.75,3455.91
7591.32,3461.52
7599.4,3466.36
7607.91,3470.39
7616.78,3473.56
7625.91,3475.85
7635.23,3477.23
7644.63,3477.69
8003.89,3477.69
8013.29,3477.23
8022.61,3475.85
8031.74,3473.56
8040.61,3470.39
8049.12,3466.36
8057.2,3461.52
8064.76,3455.91
8071.74,3449.58
8078.07,3442.61
8083.68,3435.04
8088.52,3426.96
8092.55,3418.45
8095.72,3409.58
8098.01,3400.45
8099.39,3391.13
8099.85,3381.73
8099.85,3189.8
8099.39,3180.39
8098.01,3171.08
8095.72,3161.94
8092.55,3153.07
8088.52,3144.56
8083.68,3136.48
8078.07,3128.92
8071.74,3121.94
8064.76,3115.62
8057.2,3110.01
8049.12,3105.16
8040.61,3101.14
8031.74,3097.96
8022.61,3095.68
8013.29,3094.29
8003.89,3093.83
7644.63,3093.83
Z" /> 
<path style="fill:#000000; fill-opacity:1.0; 
stroke:#000000; stroke-width:0; stroke-opacity:1; 
stroke-linecap:round; stroke-linejoin:round;fill-rule:evenodd;"
d="M 7635.23,2356.11
7625.91,2357.49
7616.78,2359.78
7607.91,2362.95
7599.4,2366.97
7591.32,2371.82
7583.75,2377.43
7576.78,2383.75
7570.45,2390.73
7564.84,2398.29
7560,2406.37
7555.97,2414.88
7552.8,2423.75
7550.51,2432.89
7549.13,2442.2
7548.67,2451.61
7548.67,2643.54
7549.13,2652.94
7550.51,2662.26
7552.8,2671.39
7555.97,2680.26
7560,2688.77
7564.84,2696.85
7570.45,2704.42
7576.78,2711.39
7583.75,2717.72
7591.32,2723.33
7599.4,2728.17
7607.91,2732.2
7616.78,2735.37
7625.91,2737.66
7635.23,2739.04
7644.63,2739.5
8003.89,2739.5
8013.29,2739.04
8022.61,2737.66
8031.74,2735.37
8040.61,2732.2
8049.12,2728.17
8057.2,2723.33
8064.76,2717.72
8071.74,2711.39
8078.07,2704.42
8083.68,2696.85
8088.52,2688.77
8092.55,2680.26
8095.72,2671.39
8098.01,2662.26
8099.39,2652.94
8099.85,2643.54
8099.85,2451.61
8099.39,2442.2
8098.01,2432.89
8095.72,2423.75
8092.55,2414.88
8088.52,2406.37
8083.68,2398.29
8078.07,2390.73
8071.74,2383.75
8064.76,2377.43
8057.2,2371.82
8049.12,2366.97
8040.61,2362.95
8031.74,2359.78
8022.61,2357.49
8013.29,2356.11
8003.89,2355.64
7644.63,2355.64
Z" /> 
</g>
<g >
</g>
<g style="fill:#000000; fill-opacity:1.0; 
stroke:#000000; stroke-width:0; stroke-opacity:1; 
stroke-linecap:round; stroke-linejoin:round;">
<path style="fill:#000000; fill-opacity:1.0; 
stroke:#000000; stroke-width:0; stroke-opacity:1; 
stroke-linecap:round; stroke-linejoin:round;fill-rule:evenodd;"
d="M 6635.23,3094.29
6625.91,3095.68
6616.78,3097.96
6607.91,3101.14
6599.4,3105.16
6591.32,3110.01
6583.75,3115.62
6576.78,3121.94
6570.45,3128.92
6564.84,3136.48
6560,3144.56
6555.97,3153.07
6552.8,3161.94
6550.51,3171.08
6549.13,3180.39
6548.67,3189.8
6548.67,3381.73
6549.13,3391.13
6550.51,3400.45
6552.8,3409.58
6555.97,3418.45
6560,3426.96
6564.84,3435.04
6570.45,3442.61
6576.78,3449.58
6583.75,3455.91
6591.32,3461.52
6599.4,3466.36
6607.91,3470.39
6616.78,3473.56
6625.91,3475.85
6635.23,3477.23
6644.63,3477.69
7003.89,3477.69
7013.29,3477.23
7022.61,3475.85
7031.74,3473.56
7040.61,3470.39
7049.12,3466.36
7057.2,3461.52
7064.76,3455.91
7071.74,3449.58
7078.07,3442.61
7083.68,3435.04
7088.52,3426.96
7092.55,3418.45
7095.72,3409.58
7098.01,3400.45
7099.39,3391.13
7099.85,3381.73
7099.85,3189.8
7099.39,3180.39
7098.01,3171.08
7095.72,3161.94
7092.55,3153.07
7088.52,3144.56
7083.68,3136.48
7078.07,3128.92
7071.74,3121.94
7064.76,3115.62
7057.2,3110.01
7049.12,3105.16
7040.61,3101.14
7031.74,3097.96
7022.61,3095.68
7013.29,3094.29
7003.89,3093.83
6644.63,3093.83
Z" /> 
<path style="fill:#000000; fill-opacity:1.0; 
stroke:#000000; stroke-width:0; stroke-opacity:1; 
stroke-linecap:round; stroke-linejoin:round;fill-rule:evenodd;"
d="M 6635.23,2356.11
6625.91,2357.49
6616.78,2359.78
6607.91,2362.95
6599.4,2366.97
6591.32,2371.82
6583.75,2377.43
6576.78,2383.75
6570.45,2390.73
6564.84,2398.29
6560,2406.37
6555.97,2414.88
6552.8,2423.75
6550.51,2432.89
6549.13,2442.2
6548.67,2451.61
6548.67,2643.54
6549.13,2652.94
6550.51,2662.26
6552.8,2671.39
6555.97,2680.26
6560,2688.77
6564.84,2696.85
6570.45,2704.42
6576.78,2711.39
6583.75,2717.72
6591.32,2723.33
6599.4,2728.17
6607.91,2732.2
6616.78,2735.37
6625.91,2737.66
6635.23,2739.04
6644.63,2739.5
7003.89,2739.5
7013.29,2739.04
7022.61,2737.66
7031.74,2735.37
7040.61,2732.2
7049.12,2728.17
7057.2,2723.33
7064.76,2717.72
7071.74,2711.39
7078.07,2704.42
7083.68,2696.85
7088.52,2688.77
7092.55,2680.26
7095.72,2671.39
7098.01,2662.26
7099.39,2652.94
7099.85,2643.54
7099.85,2451.61
7099.39,2442.2
7098.01,2432.89
7095.72,2423.75
7092.55,2414.88
7088.52,2406.37
7083.68,2398.29
7078.07,2390.73
7071.74,2383.75
7064.76,2377.43
7057.2,2371.82
7049.12,2366.97
7040.61,2362.95
7031.74,2359.78
7022.61,2357.49
7013.29,2356.11
7003.89,2355.64
6644.63,2355.64
Z" /> 
</g>
<g >
</g>
<g style="fill:#000000; fill-opacity:1.0; 
stroke:#000000; stroke-width:0; stroke-opacity:1; 
stroke-linecap:round; stroke-linejoin:round;">
<path style="fill:#000000; fill-opacity:1.0; 
stroke:#000000; stroke-width:0; stroke-opacity:1; 
stroke-linecap:round; stroke-linejoin:round;fill-rule:evenodd;"
d="M 1635.23,3094.29
1625.91,3095.68
1616.78,3097.96
1607.91,3101.14
1599.4,3105.16
1591.32,3110.01
1583.75,3115.62
1576.78,3121.94
1570.45,3128.92
1564.84,3136.48
1560,3144.56
1555.97,3153.07
1552.8,3161.94
1550.51,3171.08
1549.13,3180.39
1548.67,3189.8
1548.67,3381.73
1549.13,3391.13
1550.51,3400.45
1552.8,3409.58
1555.97,3418.45
1560,3426.96
1564.84,3435.04
1570.45,3442.61
1576.78,3449.58
1583.75,3455.91
1591.32,3461.52
1599.4,3466.36
1607.91,3470.39
1616.78,3473.56
1625.91,3475.85
1635.23,3477.23
1644.63,3477.69
2003.89,3477.69
2013.29,3477.23
2022.61,3475.85
2031.74,3473.56
2040.61,3470.39
2049.12,3466.36
2057.2,3461.52
2064.76,3455.91
2071.74,3449.58
2078.07,3442.61
2083.68,3435.04
2088.52,3426.96
2092.55,3418.45
2095.72,3409.58
2098.01,3400.45
2099.39,3391.13
2099.85,3381.73
2099.85,3189.8
2099.39,3180.39
2098.01,3171.08
2095.72,3161.94
2092.55,3153.07
2088.52,3144.56
2083.68,3136.48
2078.07,3128.92
2071.74,3121.94
2064.76,3115.62
2057.2,3110.01
2049.12,3105.16
2040.61,3101.14
2031.74,3097.96
2022.61,3095.68
2013.29,3094.29
2003.89,3093.83
1644.63,3093.83
Z" /> 
<path style="fill:#000000; fill-opacity:1.0; 
stroke:#000000; stroke-width:0; stroke-opacity:1; 
stroke-linecap:round; stroke-linejoin:round;fill-rule:evenodd;"
d="M 1635.23,2356.11
1625.91,2357.49
1616.78,2359.78
1607.91,2362.95
1599.4,2366.97
1591.32,2371.82
1583.75,2377.43
1576.78,2383.75
1570.45,2390.73
1564.84,2398.29
1560,2406.37
1555.97,2414.88
1552.8,2423.75
1550.51,2432.89
1549.13,2442.2
1548.67,2451.61
1548.67,2643.54
1549.13,2652.94
1550.51,2662.26
1552.8,2671.39
1555.97,2680.26
1560,2688.77
1564.84,2696.85
1570.45,2704.42
1576.78,2711.39
1583.75,2717.72
1591.32,2723.33
1599.4,2728.17
1607.91,2732.2
1616.78,2735.37
1625.91,2737.66
1635.23,2739.04
1644.63,2739.5
2003.89,2739.5
2013.29,2739.04
2022.61,2737.66
2031.74,2735.37
2040.61,2732.2
2049.12,2728.17
2057.2,2723.33
2064.76,2717.72
2071.74,2711.39
2078.07,2704.42
2083.68,2696.85
2088.52,2688.77
2092.55,2680.26
2095.72,2671.39
2098.01,2662.26
2099.39,2652.94
2099.85,2643.54
2099.85,2451.61
2099.39,2442.2
2098.01,2432.89
2095.72,2423.75
2092.55,2414.88
2088.52,2406.37
2083.68,2398.29
2078.07,2390.73
2071.74,2383.75
2064.76,2377.43
2057.2,2371.82
2049.12,2366.97
2040.61,2362.95
2031.74,2359.78
2022.61,2357.49
2013.29,2356.11
2003.89,2355.64
1644.63,2355.64
Z" /> 
</g>
<g >
</g>
<g style="fill:#000000; fill-opacity:1.0; 
stroke:#000000; stroke-width:0; stroke-opacity:1; 
stroke-linecap:round; stroke-linejoin:round;">
<path style="fill:#000000; fill-opacity:1.0; 
stroke:#000000; stroke-width:0; stroke-opacity:1; 
stroke-linecap:round; stroke-linejoin:round;fill-rule:evenodd;"
d="M 2635.23,2356.11
2625.91,2357.49
2616.78,2359.78
2607.91,2362.95
2599.4,2366.97
2591.32,2371.82
2583.75,2377.43
2576.78,2383.75
2570.45,2390.73
2564.84,2398.29
2560,2406.37
2555.97,2414.88
2552.8,2423.75
2550.51,2432.89
2549.13,2442.2
2548.67,2451.61
2548.67,2643.54
2549.13,2652.94
2550.51,2662.26
2552.8,2671.39
2555.97,2680.26
2560,2688.77
2564.84,2696.85
2570.45,2704.42
2576.78,2711.39
2583.75,2717.72
2591.32,2723.33
2599.4,2728.17
2607.91,2732.2
2616.78,2735.37
2625.91,2737.66
2635.23,2739.04
2644.63,2739.5
3003.89,2739.5
3013.29,2739.04
3022.61,2737.66
3031.74,2735.37
3040.61,2732.2
3049.12,2728.17
3057.2,2723.33
3064.76,2717.72
3071.74,2711.39
3078.07,2704.42
3083.68,2696.85
3088.52,2688.77
3092.55,2680.26
3095.72,2671.39
3098.01,2662.26
3099.39,2652.94
3099.85,2643.54
3099.85,2451.61
3099.39,2442.2
3098.01,2432.89
3095.72,2423.75
3092.55,2414.88
3088.52,2406.37
3083.68,2398.29
3078.07,2390.73
3071.74,2383.75
3064.76,2377.43
3057.2,2371.82
3049.12,2366.97
3040.61,2362.95
3031.74,2359.78
3022.61,2357.49
3013.29,2356.11
3003.89,2355.64
2644.63,2355.64
Z" /> 
<path style="fill:#000000; fill-opacity:1.0; 
stroke:#000000; stroke-width:0; stroke-opacity:1; 
stroke-linecap:round; stroke-linejoin:round;fill-rule:evenodd;"
d="M 2635.23,3094.29
2625.91,3095.68
2616.78,3097.96
2607.91,3101.14
2599.4,3105.16
2591.32,3110.01
2583.75,3115.62
2576.78,3121.94
2570.45,3128.92
2564.84,3136.48
2560,3144.56
2555.97,3153.07
2552.8,3161.94
2550.51,3171.08
2549.13,3180.39
2548.67,3189.8
2548.67,3381.73
2549.13,3391.13
2550.51,3400.45
2552.8,3409.58
2555.97,3418.45
2560,3426.96
2564.84,3435.04
2570.45,3442.61
2576.78,3449.58
2583.75,3455.91
2591.32,3461.52
2599.4,3466.36
2607.91,3470.39
2616.78,3473.56
2625.91,3475.85
2635.23,3477.23
2644.63,3477.69
3003.89,3477.69
3013.29,3477.23
3022.61,3475.85
3031.74,3473.56
3040.61,3470.39
3049.12,3466.36
3057.2,3461.52
3064.76,3455.91
3071.74,3449.58
3078.07,3442.61
3083.68,3435.04
3088.52,3426.96
3092.55,3418.45
3095.72,3409.58
3098.01,3400.45
3099.39,3391.13
3099.85,3381.73
3099.85,3189.8
3099.39,3180.39
3098.01,3171.08
3095.72,3161.94
3092.55,3153.07
3088.52,3144.56
3083.68,3136.48
3078.07,3128.92
3071.74,3121.94
3064.76,3115.62
3057.2,3110.01
3049.12,3105.16
3040.61,3101.14
3031.74,3097.96
3022.61,3095.68
3013.29,3094.29
3003.89,3093.83
2644.63,3093.83
Z" /> 
</g>
<g >
</g>
<g style="fill:#000000; fill-opacity:1.0; 
stroke:#000000; stroke-width:0; stroke-opacity:1; 
stroke-linecap:round; stroke-linejoin:round;">
<path style="fill:#000000; fill-opacity:1.0; 
stroke:#000000; stroke-width:0; stroke-opacity:1; 
stroke-linecap:round; stroke-linejoin:round;fill-rule:evenodd;"
d="M 6741.58,7851.71
6741.58,7261.16
6426.62,7261.16
6426.62,7851.71
Z" /> 
<path style="fill:#000000; fill-opacity:1.0; 
stroke:#000000; stroke-width:0; stroke-opacity:1; 
stroke-linecap:round; stroke-linejoin:round;fill-rule:evenodd;"
d="M 6308.51,7851.71
6308.51,7261.16
5993.55,7261.16
5993.55,7851.71
Z" /> 
<path style="fill:#000000; fill-opacity:1.0; 
stroke:#000000; stroke-width:0; stroke-opacity:1; 
stroke-linecap:round; stroke-linejoin:round;fill-rule:evenodd;"
d="M 5875.44,7851.71
5875.44,7261.16
5560.48,7261.16
5560.48,7851.71
Z" /> 
<path style="fill:#000000; fill-opacity:1.0; 
stroke:#000000; stroke-width:0; stroke-opacity:1; 
stroke-linecap:round; stroke-linejoin:round;fill-rule:evenodd;"
d="M 5442.37,7851.71
5442.37,7261.16
5127.41,7261.16
5127.41,7851.71
Z" /> 
<path style="fill:#000000; fill-opacity:1.0; 
stroke:#000000; stroke-width:0; stroke-opacity:1; 
stroke-linecap:round; stroke-linejoin:round;fill-rule:evenodd;"
d="M 5009.3,7851.71
5009.3,7261.16
4694.34,7261.16
4694.34,7851.71
Z" /> 
<path style="fill:#000000; fill-opacity:1.0; 
stroke:#000000; stroke-width:0; stroke-opacity:1; 
stroke-linecap:round; stroke-linejoin:round;fill-rule:evenodd;"
d="M 4576.23,7851.71
4576.23,7261.16
4261.27,7261.16
4261.27,7851.71
Z" /> 
<path style="fill:#000000; fill-opacity:1.0; 
stroke:#000000; stroke-width:0; stroke-opacity:1; 
stroke-linecap:round; stroke-linejoin:round;fill-rule:evenodd;"
d="M 4143.16,7851.71
4143.16,7261.16
3828.2,7261.16
3828.2,7851.71
Z" /> 
<path style="fill:#000000; fill-opacity:1.0; 
stroke:#000000; stroke-width:0; stroke-opacity:1; 
stroke-linecap:round; stroke-linejoin:round;fill-rule:evenodd;"
d="M 3710.09,7851.71
3710.09,7261.16
3395.13,7261.16
3395.13,7851.71
Z" /> 
<path style="fill:#000000; fill-opacity:1.0; 
stroke:#000000; stroke-width:0; stroke-opacity:1; 
stroke-linecap:round; stroke-linejoin:round;fill-rule:evenodd;"
d="M 2903,10194.2
2903,9406.82
2332.13,9406.82
2332.13,10194.2
Z" /> 
<path style="fill:#000000; fill-opacity:1.0; 
stroke:#000000; stroke-width:0; stroke-opacity:1; 
stroke-linecap:round; stroke-linejoin:round;fill-rule:evenodd;"
d="M 8316.39,10194.2
8316.39,9406.82
7745.52,9406.82
7745.52,10194.2
Z" /> 
<path style="fill:#000000; fill-opacity:1.0; 
stroke:#000000; stroke-width:0; stroke-opacity:1; 
stroke-linecap:round; stroke-linejoin:round;fill-rule:evenodd;"
d="M 8316.39,6926.51
8316.39,6139.11
7745.52,6139.11
7745.52,6926.51
Z" /> 
<path style="fill:#000000; fill-opacity:1.0; 
stroke:#000000; stroke-width:0; stroke-opacity:1; 
stroke-linecap:round; stroke-linejoin:round;fill-rule:evenodd;"
d="M 2903,6926.51
2903,6139.11
2332.13,6139.11
2332.13,6926.51
Z" /> 
</g>
<g >
</g>
<g style="fill:#000000; fill-opacity:1.0; 
stroke:#000000; stroke-width:0; stroke-opacity:1; 
stroke-linecap:round; stroke-linejoin:round;">
<circle cx="4804.26" cy="4146.67" r="393.701" /> 
</g>
<g style="fill:#000000; fill-opacity:1.0; 
stroke:#000000; stroke-width:0.787402; stroke-opacity:1; 
stroke-linecap:round; stroke-linejoin:round;">
</g>
<g style="fill:#000000; fill-opacity:1.0; 
stroke:#000000; stroke-width:0; stroke-opacity:1; 
stroke-linecap:round; stroke-linejoin:round;">
<circle cx="3804.26" cy="4146.67" r="393.701" /> 
</g>
<g style="fill:#000000; fill-opacity:1.0; 
stroke:#000000; stroke-width:0.787402; stroke-opacity:1; 
stroke-linecap:round; stroke-linejoin:round;">
</g>
<g style="fill:#000000; fill-opacity:1.0; 
stroke:#000000; stroke-width:0; stroke-opacity:1; 
stroke-linecap:round; stroke-linejoin:round;">
<circle cx="2804.26" cy="4146.67" r="393.701" /> 
</g>
<g style="fill:#000000; fill-opacity:1.0; 
stroke:#000000; stroke-width:0.787402; stroke-opacity:1; 
stroke-linecap:round; stroke-linejoin:round;">
</g>
<g style="fill:#000000; fill-opacity:1.0; 
stroke:#000000; stroke-width:0; stroke-opacity:1; 
stroke-linecap:round; stroke-linejoin:round;">
<circle cx="1804.26" cy="4146.67" r="393.701" /> 
</g>
<g style="fill:#000000; fill-opacity:1.0; 
stroke:#000000; stroke-width:0.787402; stroke-opacity:1; 
stroke-linecap:round; stroke-linejoin:round;">
</g>
<g style="fill:#000000; fill-opacity:1.0; 
stroke:#000000; stroke-width:0; stroke-opacity:1; 
stroke-linecap:round; stroke-linejoin:round;">
<circle cx="5804.26" cy="4146.67" r="393.701" /> 
</g>
<g style="fill:#000000; fill-opacity:1.0; 
stroke:#000000; stroke-width:0.787402; stroke-opacity:1; 
stroke-linecap:round; stroke-linejoin:round;">
</g>
<g style="fill:#000000; fill-opacity:1.0; 
stroke:#000000; stroke-width:0; stroke-opacity:1; 
stroke-linecap:round; stroke-linejoin:round;">
<circle cx="6804.26" cy="4146.67" r="393.701" /> 
</g>
<g style="fill:#000000; fill-opacity:1.0; 
stroke:#000000; stroke-width:0.787402; stroke-opacity:1; 
stroke-linecap:round; stroke-linejoin:round;">
</g>
<g style="fill:#000000; fill-opacity:1.0; 
stroke:#000000; stroke-width:0; stroke-opacity:1; 
stroke-linecap:round; stroke-linejoin:round;">
<circle cx="7804.26" cy="4146.67" r="393.701" /> 
</g>
<g style="fill:#000000; fill-opacity:1.0; 
stroke:#000000; stroke-width:0.787402; stroke-opacity:1; 
stroke-linecap:round; stroke-linejoin:round;">
</g>
<g style="fill:#000000; fill-opacity:1.0; 
stroke:#000000; stroke-width:0; stroke-opacity:1; 
stroke-linecap:round; stroke-linejoin:round;">
<circle cx="8804.26" cy="4146.67" r="393.701" /> 
</g>
<g style="fill:#000000; fill-opacity:1.0; 
stroke:#000000; stroke-width:0.787402; stroke-opacity:1; 
stroke-linecap:round; stroke-linejoin:round;">
</g>
<g >
</g>
<g style="fill:#000000; fill-opacity:1.0; 
stroke:#000000; stroke-width:0.787402; stroke-opacity:1; 
stroke-linecap:round; stroke-linejoin:round;">
</g>
<g style="fill:#000000; fill-opacity:1.0; 
stroke:#000000; stroke-width:236.22; stroke-opacity:1; 
stroke-linecap:round; stroke-linejoin:round;">
</g>
<g style="fill:#000000; fill-opacity:0.0; 
stroke:#000000; stroke-width:236.22; stroke-opacity:1; 
stroke-linecap:round; stroke-linejoin:round;">
<path d="M1804 4146
L3564 5906
" />
<path d="M3552 5918
L3552 7556
" />
<path d="M3564 5906
L3552 5918
" />
<path d="M3985 5328
L3985 7556
" />
<path d="M2804 4146
L3985 5328
" />
<path d="M3804 4146
L4424 4766
" />
<path d="M4418 4772
L4418 7556
" />
<path d="M4424 4766
L4418 4772
" />
<path d="M4804 4146
L4804 4346
" />
<path d="M4851 4394
L4851 7556
" />
<path d="M4804 4346
L4851 4394
" />
<path d="M5284 4666
L5284 7556
" />
<path d="M5804 4146
L5284 4666
" />
<path d="M5717 5232
L6804 4146
" />
<path d="M5717 7556
L5717 5232
" />
<path d="M6151 5799
L7804 4146
" />
<path d="M6151 7556
L6151 5799
" />
<path d="M6584 6366
L8804 4146
" />
<path d="M6584 7556
L6584 6366
" />
<path d="M1824 4126
L1804 4146
" />
<path d="M1824 3285
L1824 4126
" />
<path d="M2804 3305
L2824 3285
" />
<path d="M2804 4146
L2804 3305
" />
<path d="M4824 4126
L4804 4146
" />
<path d="M5824 4126
L5804 4146
" />
<path d="M6824 4126
L6804 4146
" />
<path d="M6824 3285
L6824 4126
" />
<path d="M7824 4126
L7804 4146
" />
<path d="M7824 3285
L7824 4126
" />
<path d="M8824 4126
L8804 4146
" />
<path d="M8824 3285
L8824 4126
" />
<path d="M5804 2561
L5824 2541
" />
<path d="M5804 4146
L5804 2561
" />
<path d="M5824 2541
L1824 2547
" />
<path d="M8824 2547
L5824 2541
" />
<path d="M3804 3522
L3799 3517
" />
<path d="M3804 4146
L3804 3522
" />
</g>
<g >
</g>
</g>
<g style="fill:#FFFFFF; fill-opacity:0.0; 
stroke:#FFFFFF; stroke-width:236.22; stroke-opacity:1; 
stroke-linecap:round; stroke-linejoin:round;">
</g>
<g style="fill:#FFFFFF; fill-opacity:1.0; 
stroke:#FFFFFF; stroke-width:0; stroke-opacity:1; 
stroke-linecap:round; stroke-linejoin:round;">
<circle cx="4804.26" cy="4146.67" r="157.48" /> 
</g>
<g style="fill:#FFFFFF; fill-opacity:1.0; 
stroke:#FFFFFF; stroke-width:0.787402; stroke-opacity:1; 
stroke-linecap:round; stroke-linejoin:round;">
</g>
<g style="fill:#FFFFFF; fill-opacity:1.0; 
stroke:#FFFFFF; stroke-width:0; stroke-opacity:1; 
stroke-linecap:round; stroke-linejoin:round;">
<circle cx="3804.26" cy="4146.67" r="157.48" /> 
</g>
<g style="fill:#FFFFFF; fill-opacity:1.0; 
stroke:#FFFFFF; stroke-width:0.787402; stroke-opacity:1; 
stroke-linecap:round; stroke-linejoin:round;">
</g>
<g style="fill:#FFFFFF; fill-opacity:1.0; 
stroke:#FFFFFF; stroke-width:0; stroke-opacity:1; 
stroke-linecap:round; stroke-linejoin:round;">
<circle cx="2804.26" cy="4146.67" r="157.48" /> 
</g>
<g style="fill:#FFFFFF; fill-opacity:1.0; 
stroke:#FFFFFF; stroke-width:0.787402; stroke-opacity:1; 
stroke-linecap:round; stroke-linejoin:round;">
</g>
<g style="fill:#FFFFFF; fill-opacity:1.0; 
stroke:#FFFFFF; stroke-width:0; stroke-opacity:1; 
stroke-linecap:round; stroke-linejoin:round;">
<circle cx="1804.26" cy="4146.67" r="157.48" /> 
</g>
<g style="fill:#FFFFFF; fill-opacity:1.0; 
stroke:#FFFFFF; stroke-width:0.787402; stroke-opacity:1; 
stroke-linecap:round; stroke-linejoin:round;">
</g>
<g style="fill:#FFFFFF; fill-opacity:1.0; 
stroke:#FFFFFF; stroke-width:0; stroke-opacity:1; 
stroke-linecap:round; stroke-linejoin:round;">
<circle cx="5804.26" cy="4146.67" r="157.48" /> 
</g>
<g style="fill:#FFFFFF; fill-opacity:1.0; 
stroke:#FFFFFF; stroke-width:0.787402; stroke-opacity:1; 
stroke-linecap:round; stroke-linejoin:round;">
</g>
<g style="fill:#FFFFFF; fill-opacity:1.0; 
stroke:#FFFFFF; stroke-width:0; stroke-opacity:1; 
stroke-linecap:round; stroke-linejoin:round;">
<circle cx="6804.26" cy="4146.67" r="157.48" /> 
</g>
<g style="fill:#FFFFFF; fill-opacity:1.0; 
stroke:#FFFFFF; stroke-width:0.787402; stroke-opacity:1; 
stroke-linecap:round; stroke-linejoin:round;">
</g>
<g style="fill:#FFFFFF; fill-opacity:1.0; 
stroke:#FFFFFF; stroke-width:0; stroke-opacity:1; 
stroke-linecap:round; stroke-linejoin:round;">
<circle cx="7804.26" cy="4146.67" r="157.48" /> 
</g>
<g style="fill:#FFFFFF; fill-opacity:1.0; 
stroke:#FFFFFF; stroke-width:0.787402; stroke-opacity:1; 
stroke-linecap:round; stroke-linejoin:round;">
</g>
<g style="fill:#FFFFFF; fill-opacity:1.0; 
stroke:#FFFFFF; stroke-width:0; stroke-opacity:1; 
stroke-linecap:round; stroke-linejoin:round;">
<circle cx="8804.26" cy="4146.67" r="157.48" /> 
</g>
<g style="fill:#FFFFFF; fill-opacity:1.0; 
stroke:#FFFFFF; stroke-width:0.787402; stroke-opacity:1; 
stroke-linecap:round; stroke-linejoin:round;">
</g>
<g style="fill:#000000; fill-opacity:1.0; 
stroke:#000000; stroke-width:0.787402; stroke-opacity:1; 
stroke-linecap:round; stroke-linejoin:round;">
</g> 
</svg>
